\relax 
\providecommand\HyperFirstAtBeginDocument{\AtBeginDocument}
\HyperFirstAtBeginDocument{\ifx\hyper@anchor\@undefined
\global\let\oldcontentsline\contentsline
\gdef\contentsline#1#2#3#4{\oldcontentsline{#1}{#2}{#3}}
\global\let\oldnewlabel\newlabel
\gdef\newlabel#1#2{\newlabelxx{#1}#2}
\gdef\newlabelxx#1#2#3#4#5#6{\oldnewlabel{#1}{{#2}{#3}}}
\AtEndDocument{\ifx\hyper@anchor\@undefined
\let\contentsline\oldcontentsline
\let\newlabel\oldnewlabel
\fi}
\fi}
\global\let\hyper@last\relax 
\gdef\HyperFirstAtBeginDocument#1{#1}
\providecommand\HyField@AuxAddToFields[1]{}
\@writefile{toc}{\contentsline {chapter}{List of Tables}{iii}{section*.2}}
\@writefile{toc}{\contentsline {chapter}{List of Figures}{v}{section*.4}}
\@writefile{toc}{\contentsline {chapter}{\numberline {1}RiTHM Overview}{3}{chapter.1}}
\@writefile{lof}{\addvspace {10\p@ }}
\@writefile{lot}{\addvspace {10\p@ }}
\@writefile{toc}{\contentsline {section}{\numberline {1.1}Time-triggered Monitor}{4}{section.1.1}}
\@writefile{toc}{\contentsline {section}{\numberline {1.2}Verification Engine}{4}{section.1.2}}
\@writefile{toc}{\contentsline {chapter}{\numberline {2}Getting Started}{5}{chapter.2}}
\@writefile{lof}{\addvspace {10\p@ }}
\@writefile{lot}{\addvspace {10\p@ }}
\@writefile{toc}{\contentsline {section}{\numberline {2.1}Pre-requisites}{5}{section.2.1}}
\@writefile{toc}{\contentsline {section}{\numberline {2.2}Installation}{7}{section.2.2}}
\newlabel{sec-install}{{2.2}{7}{Installation\relax }{section.2.2}{}}
\@writefile{toc}{\contentsline {chapter}{\numberline {3}Repository Structure}{9}{chapter.3}}
\@writefile{lof}{\addvspace {10\p@ }}
\@writefile{lot}{\addvspace {10\p@ }}
\@writefile{toc}{\contentsline {chapter}{\numberline {4}Running RiTHM\xspace  }{11}{chapter.4}}
\@writefile{lof}{\addvspace {10\p@ }}
\@writefile{lot}{\addvspace {10\p@ }}
\newlabel{sec-run}{{4}{11}{Running \rithm \relax }{chapter.4}{}}
\@writefile{toc}{\contentsline {section}{\numberline {4.1}Running RiTHM\xspace  via GUI}{11}{section.4.1}}
